 Given the algebraic equation y = ax^3 + 7, which of the following, if any, are correct C ++ statements for this equation?
а) у = а*х*х*х + 7;  __right
b) у = а*х*х* (х + 7); ___wrong
с) у= (а*х) *х* (х + 7); __wrong
d) y= (a*x) * х * х + 7; __ right
е) у = а*(х*х*х) +7; __ right
f) у = а * х * (х * х + 7 ) ;__ wrong

