Question!!!.
-------------------------------------------------------------------------------------------------
What is wrong with the following statement? Provide the correct statement to accomplish what the 
programmer was probably trying to do.
cout << ++( x + y );

Answer!!!.
----------------------------------------------------------------------------------------------------
Incrementation works correctly with lvalue operands(operands that have name, for example variables).

I think its more correct to wright this!!!

int x;
int y;
int z = x + y;
cout << ++z;

