a)x = 5, y = 8
    if (8 == y) {
        if (5 == x) {
            std::cout << "@@@@@" << std::endl;
        } 
        
        else {
            std::cout << "#####" << std::endl;
        }

    
        std::cout << "$$$$$" << std::endl;

        std::cout << "&&&&&" << std::endl;
    }

Output is:
    @@@@@
    $$$$$
    &&&&&


    
b)x = 5, y = 8
    if (8 == y) {
        if (5 == x) {
            std::cout << "@@@@@" << std::endl;
        }
    } 
    
    else {
        std::cout << "#####" << std::endl;
        std::cout << "$$$$$" << std::endl;
        std::cout << "&&&&&" << std::endl;
    } 

Output is:
    @@@@@



c)x = 5, y = 8
    if (8 == y) {
        if (5 == x) {
            std::cout << "@@@@@" << std::endl;
        } 
        
        else {
            std::cout << "#####" << std::endl;
            std::cout << "$$$$$" << std::endl;
        }
            std::cout << "&&&&&" << std::endl;
    }       

Output is:
    @@@@@
    &&&&&



d)x = 5, y = 7
    if (8 == y) {
        if (5 == x) {
            std::cout << "@@@@@" << std::endl;
        }
    } 

    else {
        std::cout << "#####" << std::endl;
        std::cout << "$$$$$" << std::endl;
        std::cout << "&&&&&" << std::endl;
    }

Output is:
    #####
    $$$$$
    &&&&&
