Which of the followig C++ statements contain variabels whose values are replased.
a)cin >> b >> c >> d >> e >> f;  //yes
b)p = i + j + k + 7; //yes
c)cout << "variables whose values are replaced "; //no
d)cout << "a = 5"; //no
